{
com.badlogic.gdx.graphics.g2d.BitmapFont: {
	trebushet: {
		file: trebushet.fnt
	}
}
com.badlogic.gdx.graphics.Color: {
	RGBA_255_255_255_255: {
		r: 1
		g: 1
		b: 1
		a: 1
	}
}
com.badlogic.gdx.scenes.scene2d.ui.Button$ButtonStyle: {
	default: {
		up: default-round
		down: default-round-down
	}
}
com.badlogic.gdx.scenes.scene2d.ui.CheckBox$CheckBoxStyle: {
	default: {
		checkboxOn: check-on
		checkboxOff: check-off
		font: trebushet
	}
}
com.badlogic.gdx.scenes.scene2d.ui.ImageTextButton$ImageTextButtonStyle: {
	default: {
		font: trebushet
	}
}
com.badlogic.gdx.scenes.scene2d.ui.Label$LabelStyle: {
	default: {
		font: trebushet
		fontColor: RGBA_255_255_255_255
	}
}
com.badlogic.gdx.scenes.scene2d.ui.List$ListStyle: {
	default: {
		font: trebushet
		fontColorSelected: RGBA_255_255_255_255
		fontColorUnselected: RGBA_255_255_255_255
		selection: selection
	}
}
com.badlogic.gdx.scenes.scene2d.ui.ProgressBar$ProgressBarStyle: {
	default-horizontal: {
		background: default-slider
		knob: default-slider-knob
	}
}
com.badlogic.gdx.scenes.scene2d.ui.ScrollPane$ScrollPaneStyle: {
	default: {
		background: default-rect
		hScroll: default-scroll
		hScrollKnob: default-round-large
		vScroll: default-scroll
		vScrollKnob: default-round-large
	}
}
com.badlogic.gdx.scenes.scene2d.ui.SelectBox$SelectBoxStyle: {
	default: {
		font: trebushet
		fontColor: RGBA_255_255_255_255
		background: default-select
		scrollStyle: default
		listStyle: default
	}
}
com.badlogic.gdx.scenes.scene2d.ui.Slider$SliderStyle: {
	default-horizontal: {
		background: default-slider
		knob: default-slider-knob
	}
}
com.badlogic.gdx.scenes.scene2d.ui.SplitPane$SplitPaneStyle: {
	default-horizontal: {
		handle: default-splitpane
	}
}
com.badlogic.gdx.scenes.scene2d.ui.TextButton$TextButtonStyle: {
	default: {
		font: trebushet
		fontColor: RGBA_255_255_255_255
		up: default-round
		down: default-round-down
	}
}
com.badlogic.gdx.scenes.scene2d.ui.TextField$TextFieldStyle: {
	default: {
		font: trebushet
		fontColor: RGBA_255_255_255_255
		background: textfield
		cursor: cursor
		selection: selection
	}
}
com.badlogic.gdx.scenes.scene2d.ui.TextTooltip$TextTooltipStyle: {
	default: {
		label: default
		background: default-pane
		wrapWidth: 150
	}
}
com.badlogic.gdx.scenes.scene2d.ui.Touchpad$TouchpadStyle: {
	default: {
		background: default-pane
		knob: default-round-large
	}
}
com.badlogic.gdx.scenes.scene2d.ui.Tree$TreeStyle: {
	default: {
		plus: tree-plus
		minus: tree-minus
		selection: default-select
	}
}
com.badlogic.gdx.scenes.scene2d.ui.Window$WindowStyle: {
	default: {
		background: default-window
		titleFont: trebushet
		titleFontColor: RGBA_255_255_255_255
	}
}
}